Reading and Cleaning Data with {mnirs}
…
## Note the above info message that sample_rate was estimated correctly at 2 Hz ☝
## ignore the warnings about irregular sampling for now, we will resample later

data_raw
#> # A tibble: 2,202 × 3
#>     time smo2_left smo2_right
#>    <dbl>     <dbl>      <dbl>
#>  1 0            54         68
#>  2 0.560        54         68
#>  3 1.11         54         66
#>  4 1.66         54         66
#>  5 2.21         54         66
#>  6 2.76         54         66
#>  7 3.31         57         67
#>  8 3.86         57         67
#>  9 4.41         57         67
#> 10 4.96         57         67
#> # ℹ 2,192 more rows
…
Any new samples created by resampling (i.e. samples fill in between gaps, or up-sampled indices) can be filled in or left blank as NA. The default method is to leave new samples blank, and interpolation must be explicitly specified as either “locf” to repeat the last observation carried forward, or “linear” interpolation.

data_resampled <- resample_mnirs(
    data_raw,            ## blank channels will be retrieved from metadata
    time_channel = time, ## channels can be left blank or specified explicitly
    sample_rate = NULL,  ## blank by default will be retrieved from metadata
    resample_rate = 2,   ## blank by default will resample to `sample_rate`
    method = "linear"    ## linear interpolation across resampled indices
)
#> ℹ Output is resampled at 2 Hz.

## note the altered "time" values from the original data frame 👇
data_resampled
#> # A tibble: 2,419 × 3
#>     time smo2_left smo2_right
#>    <dbl>     <dbl>      <dbl>
#>  1   0        54         68  
#>  2   0.5      54         68  
#>  3   1        54         66.4
#>  4   1.5      54         66  
#>  5   2        54         66  
#>  6   2.5      54         66  
#>  7   3        55.3       66.4
#>  8   3.5      57         67  
#>  9   4        57         67  
#> 10   4.5      57         67  
#> # ℹ 2,409 more rows
…
